[
    {
        "filter_name": "oplus_adfr_config"
    },
    {
        "version": 20211018
    },
    {
        "sub_version": "ADFR2.0"
    },
    {
        "feature_sa": "true"
    },
    {
        "feature_osync": 0
    },
    {
        "touch_idle": true,
        "hw_enable": true,
        "sw_enable": true,
        "adfr_enable": false,
        "timeout": 4000,
        "hw_brightness_limit": 7773,
        "hw_gray": true,
        "hw_gray_threshold": 55,
        "hw_gray_percent": 70,
        "sw_whitelist": [
            "com.kiloo.subwaysurf",
            "com.happyelements.AndroidAnimal"
        ],
        "blacklist": [
            "com.android.settings",
            "com.android.mms",
            "com.oplus.engineermode",
            "com.antutu.ABenchMark",
            "com.antutu.benchmark.full",
            "com.ludashi.benchmark2",
            "com.ludashi.benchmark",
            "com.coloros.video",
            "com.tencent.tvoem",
            "com.tencent.qqlive",
            "com.youku.phone",
            "com.tencent.tmgp.speedmobile",
            "com.tencent.af",
            "com.netease.blqx.nearme.gamecenter",
            "com.netease.lztg.nearme.gamecenter",
            "com.pwrd.xxajh.nearme.gamecenter",
            "com.netease.blqx",
            "com.netease.lztg",
            "com.tencent.ig",
            "com.tencent.lolm",
            "com.riotgames.league.wildrift",
            "com.riotgames.internal.wildrift.trunk",
            "com.riotgames.internal.wildrift.test",
            "com.riotgames.league.wildriftvn",
            "com.riotgames.league.wildrifttw",
            "com.riotgames.smg.league.wildrift",
            "com.riotgames.smg.league.wildriftvn",
            "com.riotgames.smg.league.wildrifttw",
            "com.tencent.tmgp.sgame",
            "com.tencent.tmgp.cf",
            "com.tencent.tmgp.pubgmhd",
            "com.tencent.tmgp.pubgm",
            "com.pubg.krmobile",
            "com.vng.pubgmobile",
            "com.rekoo.pubgm",
            "com.tencent.tmgp.projectg",
            "com.tencent.igce",
            "com.tencent.tmgp.sgamece",
            "com.tencent.KiHan",
            "com.tencent.tmgp.KiHan",
            "com.netease.yokaikoya",
            "com.miHoYo.enterprise.NGHSoD",
            "com.miHoYo.bh3.nearme.gamecenter",
            "com.miHoYo.enterprise.NGHSoD",
            "com.miHoYo.Yuanshen",
            "com.tencent.tmgp.cod",
            "com.tencent.fifamobile",
            "com.protopop.brightridge",
            "com.tencent.tmgp.NBA",
            "com.tencent.tmgp.WePop",
            "com.netease.pes.nearme.gamecenter",
            "com.netease.pes",
            "com.netease.pm02.nearme.gamecenter",
            "com.netease.pm02",
            "com.wmsjjdb.nearme.gamecenter",
            "com.tencent.wmsj",
            "com.zsyj.nearme.gamecenter",
            "com.pwrd.zsyj.laohu",
            "com.tencent.ig",
            "com.tencent.tmgp.wuxia",
            "com.netease.mrzh.nearme.gamecenter",
            "com.netease.mrzh",
            "com.pubg.imobile",
            "com.netease.sky.nearme.gamecenter",
            "com.netease.onmyoji.nearme.gamecenter",
            "com.netease.onmyoji",
            "com.sofunny.Sausage",
            "com.tencent.tmgp.eyou.ygwu",
            "com.netease.yokaikoya.nearme.gamecenter",
            "com.tencent.YiRen",
            "com.netease.wptqz",
            "com.netease.jddsaef",
            "com.netease.jddsaef.nearme.gamecenter",
            "com.tencent.tmgp.jddsaef",
            "com.tencent.tmgp.yongyong.lztg",
            "com.tencent.tmgp.eyou.blqx",
            "com.pwrd.xxajh.laohu",
            "com.tencent.tmgp.xxajh",
            "com.tencent.tmgp.eyou.blqx",
            "com.netease.moba.nearme.gamecenter",
            "com.netease.moba",
            "com.tencent.tmgp.kaopu.jzpaj",
            "com.tencent.tmgp.kaopu.jzpaj",
            "com.pwrd.xsmdl.laohu",
            "com.xsmdl.nearme.gamecenter",
            "com.tencent.tmgp.xsmdl",
            "comcom.youzu.bs",
            "com.youzu.bs.nearme.gamecenter",
            "com.yingxiong.dftk.nearme.gamecenter",
            "com.yunbu.rehtona.nearme.gamecenter",
            "com.denachina.g13002010.denacn",
            "com.denachina.g13002010.nearme.gamecenter",
            "com.volvapps.ef5.x.nearme.gamecenter",
            "com.tencent.tmgp.ef5",
            "com.tencent.tmgp.hqxy",
            "com.hottagames.hotta.nearme.gamecenter",
            "com.pwrd.hotta.laohu",
            "com.vp.z497.he0t52",
            "com.tencent.tmgp.hotta",
            "com.axlebolt.standoff2",
            "com.netease.x19",
            "com.tencent.tmgp.wdsj666",
            "com.netease.mc.nearme.gamecenter",
            "com.palmpi.hcollege.nearme.gamecenter",
            "com.palmpi.hcollege.feiyu",
            "com.tencent.tmgp.supercell.brawlstars",
            "com.ztgame.bob",
            "com.netease.hyxd.nearme.gamecenter",
            "com.netease.dwrg.nearme.gamecenter",
            "com.netease.dwrg",
            "com.google.android.youtube",
            "com.tencent.qqsports",
            "com.garena.game.fctw",
            "com.netflix.mediaclient",
            "com.miHoYo.ys.bilibili",
            "com.miHoYo.ys.mi",
            "com.miHoYo.GenshinImpact",
            "com.miHoYo.bh3.bilibili",
            "com.miHoYo.bh3.mi",
            "com.netease.pm02.bilibili",
            "com.netease.pm02.mi",
            "com.pwrd.zsyj.bilibili",
            "com.pwrd.zsyj.mi",
            "com.netease.dwrg.bili",
            "com.netease.dwrg.mi",
            "com.netease.idv.googleplay",
            "com.netease.mrzh.bilibili",
            "com.netease.mrzh.mi",
            "com.netease.mrzhna",
            "com.netease.onmyoji.bili",
            "com.netease.onmyoji.mi",
            "com.netease.onmyoji.gb",
            "com.netease.moba.bili",
            "com.netease.moba.mi",
            "com.netease.g78na.gb"
        ]
    },
    {
        "cvt": true
    },
    {
        "frtc": true
    }
]
